0ad-data=0.0.26-0ubuntu0.1~wfg1+11.0trisquel1
0ad=0.0.26-0ubuntu0.22.04.1~wfg1+11.0trisquel1
a11y-profile-manager=0.1.11-0ubuntu4+11.0trisquel5
abiword=3.0.5~dfsg-1+11.0trisquel1
akregator=4:21.12.3-0ubuntu1+11.0trisquel3
alsa-lib=1.2.6.1-1ubuntu1+11.0trisquel1
ansible=2.10.7+merged+base+2.10.8+dfsg-1+11.0trisquel2
apache2=2.4.52-1ubuntu4.2+11.0trisquel3
apache2=2.4.52-1ubuntu4.4+11.0trisquel3
app-install-data=1:11.0-20221207
apt-mirror=0.5.4-1+11.0trisquel3
apt-move=4.2.27-6+11.0trisquel1
apt=2.4.8+11.0trisquel3
aptitude=0.8.13-3ubuntu1+11.0trisquel1
arctica-greeter=0.99.1.5-2nmu3+11.0trisquel3
argon2=0~20171227-0.3+11.0trisquel0
asunder=2.9.7-1build1+11.0trisquel3
at-spi2-core=2.44.0-3+11.0trisquel1
atheros-firmware=0.1-20100501trisquel1
base-files=1:12ubuntu4.2+11.0trisquel6
bash=5.1-6ubuntu1+11.0trisquel1
bind9-libs=1:9.11.19+dfsg-2.1ubuntu3+11.0trisquel1
birdtray=1.9.0+ds-2+11.0trisquel2
bleachbit=4.4.2-1+11.0trisquel3
bogl=0.1.18-17ubuntu4+11.0trisquel0
brltty=6.5-6~bpo11+1+11.0trisquel0
btrfs-progs=5.16.2-1+11.0trisquel1
budgie-artwork=0.14.4+11.0trisquel2
budgie-desktop-environment=0.17.14+11.0trisquel1
busybox=1:1.30.1-7ubuntu3+11.0trisquel0
ca-certificates=20211016+11.0trisquel2
cargo=0.66.0+ds0ubuntu0.libgit2-0ubuntu0.22.04+11.0trisquel1
casper=1.470.1+11.0trisquel15
casper=1.470.2+11.0trisquel17
cdebconf=0.261ubuntu1+11.0trisquel2
cdrkit=9:1.1.11-3.2ubuntu1+11.0trisquel1
command-not-found=22.04.0+11.0trisquel2
compiz=1:0.9.14.1+22.04.20220820-0ubuntu1+11.0trisquel1
compton=1-1+11.0trisquel11
conky=1.12.2-1+11.0trisquel1
connman=1.36-2.3build1+11.0trisquel1
console-setup=1.205-11.0trisquel3
console-setup=1.205ubuntu3-11.0trisquel6
cpio-doc=2.13-1+11.0trisquel1
cron=3.0pl1-137ubuntu3+11.0trisquel1
cryptsetup=2:2.4.3-1ubuntu1.1+11.0trisquel1
cups-filters=1.28.15-0ubuntu1+11.0trisquel1
darkice=1.3-0.3+11.0trisquel1
debian-installer=20210731+deb11u7+11.0trisquel11
debian-installer=20210731+deb11u7+11.0trisquel12
debian-ports-archive-keyring=2022.02.15+11.0trisquel0
debian-reference=2.89+11.0trisquel4
debootstrap=1.0.126+nmu1ubuntu0.2+11.0trisquel6
deja-dup=42.9-1ubuntu3+11.0trisquel1
deluge=2.1.1-0~202207101304~ubuntu22.04.1+11.0trisquel1
desktop-file-utils=0.26-1ubuntu3+11.0trisquel2
devede=4.16.0-1+11.0trisquel1
devscripts=2.22.1ubuntu1+11.0trisquel1
distro-info-data=0.52ubuntu0.2+11.0trisquel5
distro-info-data=0.52ubuntu0.3+11.0trisquel6
distro-info=1.1build1+11.0trisquel2
dmidecode=3.3-3ubuntu0.1+11.0trisquel0
dmraid=1.0.0.rc16-10ubuntu2+11.0trisquel1
dosfstools=4.2-1build3+11.0trisquel0
doxygen=1.9.1-2ubuntu2+11.0trisquel2
dpkg=1.21.1ubuntu2.1+11.0trisquel4
dsniff=2.4b1+debian-30build1+11.0trisquel1
dvd-slideshow=0.8.6.1-1.1+11.0trisquel1
e2fsprogs=1.46.5-2ubuntu1.1+11.0trisquel0
electrum=4.0.9-1+11.0trisquel1
emacs-non-dfsg=1:27.1+1-2+11.0trisquel2
emacs=1:27.1+1-3ubuntu5+11.0trisquel1
enblend-enfuse=4.2-8+11.0trisquel0
enigmail=2:2.2.4-0.3+11.0trisquel2
epiphany-browser=42.4-0ubuntu1+11.0trisquel1
epoptes=23.01-1~ubuntu22.04.1+11.0trisquel1
espeakup=1:0.90-6+11.0trisquel0
evince=42.3-0ubuntu2+11.0trisquel2
evince=42.3-0ubuntu3+11.0trisquel2
expat=2.4.7-1+11.0trisquel0
fai=5.10.3ubuntu1+11.0trisquel1
firefox=109.0+build2-0ubuntu0.22.04.1~mt1+11.0trisquel94
firefox=112.0+build2-0ubuntu0.22.04.1~mt1+11.0trisquel101
firmware-free=20200122-1+11.0trisquel4
foomatic-filters=4.0.17-13+11.0trisquel1
freedom-maker=0.31+11.0trisquel1
fribidi=1.0.8-2ubuntu3.1+11.0trisquel0
fuse3=3.10.5-1build1+11.0trisquel1
fuse=2.9.9-5ubuntu3+11.0trisquel1
gimp=2.10.30-1build1+11.0trisquel2
glibc=2.35-0ubuntu3.1+11.0trisquel1
gnome-boxes=42.2-0ubuntu1+11.0trisquel1
gnome-colors=5.5.1-2.1+11.0trisquel5
gnome-control-center=1:41.7-0ubuntu0.22.04.5+11.0trisquel1
gnome-control-center=1:41.7-0ubuntu0.22.04.6+11.0trisquel2
gnome-flashback=3.44.0-1ubuntu2+11.0trisquel1
gnome-menus=3.36.0-1ubuntu3+11.0trisquel1
gnome-online-accounts=3.44.0-1ubuntu1+11.0trisquel2
gnome-session=42.0-1ubuntu2+11.0trisquel2
gnome-tweaks=42~beta-1ubuntu2+11.0trisquel2
gnome-user-docs=41.5-1ubuntu2+11.0trisquel2
gnupg2=2.2.27-3ubuntu2.1+11.0trisquel0
greybird-gtk-theme=3.23.1-0ubuntu1+11.0trisquel11
grub2-unsigned=2.06-2ubuntu10+11.0trisquel7
grub2-unsigned=2.06-2ubuntu14.1+11.0trisquel7
grub2=2.06-2ubuntu7+11.0trisquel7
grub2=2.06-2ubuntu7.1+11.0trisquel7
gtk2-engines-oxygen=1.4.6-1.1build2+11.0trisquel1
haveged=1.9.14-1ubuntu1+11.0trisquel1
hexchat=2.16.0-4build1+11.0trisquel1
holotz-castle=1.3.14-12+11.0trisquel1
hplip=3.21.12+dfsg0-1+11.0trisquel2
hugin=2020.0.0+dfsg-2+11.0trisquel0
hwloc=2.7.0-2ubuntu1+11.0trisquel1
ibus=1.5.26-4+11.0trisquel1
ifupdown=0.8.36+nmu1ubuntu3+11.0trisquel0
indicator-applet=12.10.2+20.10.20200915-0ubuntu1+11.0trisquel3
indicator-datetime=15.10+21.04.20210304-0ubuntu1+11.0trisquel2
indicator-sensors=1.2-1build1+11.0trisquel1
indicator-session=17.3.20+21.10.20210613.1-0ubuntu1+11.0trisquel1
initramfs-tools=0.140ubuntu13.1+11.0trisquel2
inkscape=1:1.2.2+202212051552+b0a8486541~ubuntu22.04.1+11.0trisquel2
installation-report=2.78+11.0trisquel0
isc-dhcp=4.4.1-2.3ubuntu2.3+11.0trisquel2
isc-dhcp=4.4.1-2.3ubuntu2.4+11.0trisquel2
jfsutils=1.1.15-5build3+11.0trisquel0
json-c=0.15-3~ubuntu1.22.04.1+11.0trisquel0
kbd=2.3.0-3ubuntu4+11.0trisquel1
kbd=2.3.0-3ubuntu4.22.04+11.0trisquel1
kdenlive=4:22.12.3-1~ubuntu22.04.1+11.0trisquel2
kmod=29-1ubuntu1+11.0trisquel1
kopete=4:21.12.3-0ubuntu1+11.0trisquel1
ktp-accounts-kcm=4:21.12.3-0ubuntu1+11.0trisquel1
kubuntu-settings=1:22.04.10+11.0trisquel12
language-selector=0.219.1+11.0trisquel1
libaio=0.3.112-13build1+11.0trisquel1
libbsd=0.11.5-1+11.0trisquel0
libcap2=1:2.44-1build3+11.0trisquel1
libdebian-installer=0.122ubuntu3+11.0trisquel0
libgcrypt20=1.9.4-3ubuntu3+11.0trisquel0
libgpg-error=1.43-3+11.0trisquel0
libinih=53-1ubuntu3+11.0trisquel0
libmd=1.0.4-1build1+11.0trisquel0
libnl3=3.5.0-0.1+11.0trisquel1
libreoffice=1:7.4.5-0ubuntu0.22.04.1~lo1+11.0trisquel1
libreoffice=4:7.5.2~rc2-0ubuntu0.22.04.1~lo1+11.0trisquel1
libselinux=3.3-1build2+11.0trisquel1
libtextwrap=0.1-15build1+11.0trisquel0
libtgowt=0~git20230105.5098730+dfsg-1~bpo11+1+11.0trisquel4
libva=2.14.0-1+11.0trisquel1
libvigraimpex=1.11.1+dfsg-11+11.0trisquel0
libxcrypt=1:4.4.27-1+11.0trisquel0
libxfce4ui=4.16.1-1+11.0trisquel2
libzstd=1.4.8+dfsg-3build1+11.0trisquel1
liferea=1.13.7-2build1+11.0trisquel7
lightdm-gtk-greeter=2.0.8-2ubuntu1+11.0trisquel5
lightdm=1.30.0-0ubuntu5+11.0trisquel2
lighttpd=1.4.63-1ubuntu3+11.0trisquel1
lighttpd=1.4.63-1ubuntu3.1+11.0trisquel1
linux-hwe-5.19=5.19.0-38.39~22.04.1+11.0trisquel19
linux-meta-hwe-5.19=5.19.0.38.39~22.04.12+11.0trisquel6
linux-meta=5.15.0.56.54+11.0trisquel6
linux-meta=5.15.0.58.56+11.0trisquel6
linux-meta=5.15.0.60.58+11.0trisquel6
linux-meta=5.15.0.69.67+11.0trisquel6
linux=5.15.0-37.39+11.0trisquel11
linux=5.15.0-40.43+11.0trisquel11
linux=5.15.0-41.44+11.0trisquel11
linux=5.15.0-43.46+11.0trisquel11
linux=5.15.0-46.49+11.0trisquel11
linux=5.15.0-47.51+11.0trisquel11
linux=5.15.0-48.54+11.0trisquel11
linux=5.15.0-50.56+11.0trisquel11
linux=5.15.0-52.58+11.0trisquel13
linux=5.15.0-53.59+11.0trisquel13
linux=5.15.0-56.62+11.0trisquel13
linux=5.15.0-57.63+11.0trisquel13
linux=5.15.0-58.64+11.0trisquel13
linux=5.15.0-60.66+11.0trisquel16
linux=5.15.0-67.74+11.0trisquel18
linux=5.15.0-69.76+11.0trisquel19
localechooser=2.89ubuntu3+11.0trisquel1
ltsp=23.01-1~ubuntu22.04.1+11.0trisquel1
lvm2=2.03.11-2.1ubuntu4+11.0trisquel4
lzo2=2.10-2build3+11.0trisquel0
mate-desktop-environment=1.26.0+1ubuntu6+11.0trisquel2
mate-indicator-applet=1.26.0-1+11.0trisquel1
mate-media=1.26.0-1+11.0trisquel3
mate-menus=1.26.0-2ubuntu2+11.0trisquel9
mate-panel=1.26.2-1+11.0trisquel10
mate-sensors-applet=1.26.0-1+11.0trisquel1
mate-session-manager=1.26.0-1ubuntu1+11.0trisquel8
mate-tweak=22.04.8-0ubuntu3+11.0trisquel15
mate-tweak=22.04.8-0ubuntu3+11.0trisquel16
mdadm=4.2-0ubuntu1+11.0trisquel1
meta-gnome3=1:42+3+11.0trisquel3
mlt=7.14.0-1~ubuntu22.04.1+11.0trisquel2
mplayer-skins=3.2build1+11.0trisquel1
mplayer=2:1.4+ds1-3build1+11.0trisquel1
mplayer=2:1.4+ds1-3ubuntu0.1+11.0trisquel1
mtpaint=3.40-3.1build1+11.0trisquel0
multipath-tools=0.8.8-1ubuntu1+11.0trisquel0
multipath-tools=0.8.8-1ubuntu1.22.04.1+11.0trisquel2
nano=6.2-1+11.0trisquel0
nautilus=1:42.2-0ubuntu2.1+11.0trisquel3
ncurses=6.3-2+11.0trisquel0
ndisc6=1.0.4-2ubuntu2+11.0trisquel0
neofetch=7.1.0-3+11.0trisquel1
network-manager-applet=1.24.0-1ubuntu3+11.0trisquel0
network-manager=1.36.6-0ubuntu2+11.0trisquel2
newt=0.52.21-5ubuntu2+11.0trisquel3
nextcloud-desktop=3.8.0-20230402.070514.b15f9376b-1.0~jammy1+11.0trisquel2
nginx=1.18.0-6ubuntu14.3+11.0trisquel1
nodejs=16.14.2+dfsg1-1ubuntu3~22.04.1~mt1+11.0trisquel0
notify-osd=0.9.35+20.04.20191129-0ubuntu2+11.0trisquel1
ntfs-3g=1:2021.8.22-3ubuntu1.2+11.0trisquel1
open-iscsi=2.1.5-1ubuntu1+11.0trisquel1
open-isns=0.101-0ubuntu2+11.0trisquel0
opendht=2.4.12-7+11.0trisquel1
openfwwf=5.2-0trisquel4
openssh=1:8.9p1-3+11.0trisquel2
openssl=1.1.1l-1ubuntu1
openssl=3.0.2-0ubuntu1.7+11.0trisquel0
openssl=3.0.2-0ubuntu1.8+11.0trisquel0
orca=42.0-1ubuntu2+11.0trisquel1
os-prober=1.79ubuntu2+11.0trisquel0
osinfo-db=0.20220214-1ubuntu2.1+11.0trisquel1
p7zip=16.02+dfsg-8+11.0trisquel1
packagekit=1.2.5-2ubuntu2+11.0trisquel1
parted=3.4-2build1+11.0trisquel0
pbuilder=0.231build1+11.0trisquel2
pciutils=1:3.7.0-6+11.0trisquel0
pcmciautils=018-13build1+11.0trisquel1
pcre2=10.39-3ubuntu0.1+11.0trisquel0
pcre3=2:8.39-13ubuntu0.22.04.1+11.0trisquel0
pdfarranger=1.8.2-1+11.0trisquel2
pidgin=1:2.14.8-1ubuntu2+11.0trisquel1
plasma-desktop=4:5.24.7-0ubuntu0.1+11.0trisquel1
plasma-discover=5.24.7-0ubuntu0.1+11.0trisquel2
plasma-workspace=4:5.24.7-0ubuntu0.1+11.0trisquel3
plymouth=0.9.5+git20211018-1ubuntu3+11.0trisquel12
popt=1.18-3build1+11.0trisquel0
postgresql-common=238+11.0trisquel1
ppa-purge=0.2.8+bzr63-0ubuntu1+11.0trisquel1
psensor=1.1.5-1.3ubuntu2+11.0trisquel1
pulseaudio=1:15.99.1+dfsg1-1ubuntu2+11.0trisquel1
pulseaudio=1:15.99.1+dfsg1-1ubuntu2.1+11.0trisquel1
python-apt=2.4.0+11.0trisquel4
qtwebengine-opensource-src=5.15.9+dfsg-1+11.0trisquel3
quassel=1:0.14.0-1ubuntu0.22.04.4+11.0trisquel3
rdate=1:1.10.2-1build1+11.0trisquel0
redshift=1.12-4.2ubuntu1+11.0trisquel4
redshift=1.12-4.2ubuntu1+11.0trisquel5
reiserfsprogs=1:3.6.27-4build4+11.0trisquel1
reprepro=5.3.0-1.4+11.0trisquel1
resolvconf=1.84ubuntu1+11.0trisquel1
rhythmbox=3.4.4-5ubuntu1+11.0trisquel3
ring=20230206.0~ds2-1.1+11.0trisquel1
rustc=1.60.0+dfsg1-1+11.0trisquel0
rustc=1.62.1+dfsg1-1ubuntu0.22.04~ppa1+11.0trisquel0
rustc=1.63.0+dfsg0ubuntu1-0ubuntu0.22.04+11.0trisquel1
rustc=1.64.0+dfsg1-1~exp2ubuntu0.22.04.1+11.0trisquel1
rustc=1.65.0+dfsg0ubuntu1-0ubuntu0.22.04.1+11.0trisquel1
screen=4.9.0-1+11.0trisquel0
screenfetch=3.9.1+20210523-1+11.0trisquel1
scummvm=2.5.1+dfsg-1build2+11.0trisquel1
seahorse=41.0-2+11.0trisquel5
shim=15.4-7+11.0trisquel0
slang2=2.3.2-5build4+11.0trisquel0
software-properties=0.99.22.4+11.0trisquel11
software-properties=0.99.22.6+11.0trisquel12
sugar-activity-abacus=61+11.0trisquel1
sugar-activity-analyzejournal=5+11.0trisquel1
sugar-activity-browse=207+11.0trisquel1
sugar-activity-calculate=47+11.0trisquel1
sugar-activity-chat=86+11.0trisquel1
sugar-activity-clock=22+11.0trisquel1
sugar-activity-colordeducto=8+11.0trisquel1
sugar-activity-deducto=11+11.0trisquel1
sugar-activity-develop=44+11.0trisquel1
sugar-activity-flip=10+11.0trisquel1
sugar-activity-flipsticks=14+11.0trisquel1
sugar-activity-fractionbounce=28.1+11.0trisquel1
sugar-activity-gcompris=21+11.0trisquel1
sugar-activity-iknowmyabcs=7+11.0trisquel1
sugar-activity-imageviewer=65+11.0trisquel1
sugar-activity-implode=20+11.0trisquel1
sugar-activity-iq=23+11.0trisquel1
sugar-activity-irc=14+11.0trisquel1
sugar-activity-jukebox=36+11.0trisquel1
sugar-activity-jumble=23+11.0trisquel1
sugar-activity-lettermatch=9+11.0trisquel1
sugar-activity-locosugar=12+11.0trisquel1
sugar-activity-log=42+11.0trisquel1
sugar-activity-maze=30+11.0trisquel1
sugar-activity-measure=103+11.0trisquel1
sugar-activity-memorize=58+11.0trisquel1
sugar-activity-moon=19+11.0trisquel1
sugar-activity-musickeyboard=13+11.0trisquel1
sugar-activity-napier=6+11.0trisquel1
sugar-activity-nutrition=16+11.0trisquel1
sugar-activity-paint=70+11.0trisquel1
sugar-activity-periodictable=2+11.0trisquel1
sugar-activity-pippy=75+11.0trisquel1
sugar-activity-poll=33+11.0trisquel1
sugar-activity-portfolio=52+11.0trisquel1
sugar-activity-pukllanapac=14+10.0trisquel1
sugar-activity-read=123+11.0trisquel1
sugar-activity-recall=8+11.0trisquel1
sugar-activity-record=201+11.0trisquel1
sugar-activity-reflection=15+11.0trisquel1
sugar-activity-simplegnuchess=18+11.0trisquel1
sugar-activity-speak=59+11.0trisquel1
sugar-activity-stopwatch=21+11.0trisquel1
sugar-activity-story=20+11.0trisquel1
sugar-activity-terminal=47+11.0trisquel1
sugar-activity-turtleblocks=220+10.0trisquel2
sugar-activity-typingturtle=32+11.0trisquel1
sugar-activity-wordcloud=6+11.0trisquel1
sugar-activity-words=24+10.0trisquel1
sugar-activity-write=101+11.0trisquel1
sugar-artwork=0.119-1+11.0trisquel1
sugar-datastore=0.119-1+11.0trisquel1
sugar-toolkit-gtk3=0.119-1+11.0trisquel1
sugar=0.119-1+11.0trisquel2
system-config-printer=1.5.16-0ubuntu3+11.0trisquel2
systemd=249.11-0ubuntu3.6+11.0trisquel1
systemd=249.11-0ubuntu3.7+11.0trisquel1
systemd=249.11-0ubuntu3.9+11.0trisquel1
tasksel=3.68ubuntu2+11.0trisquel6
telegram-desktop=4.6.5+ds-1~bpo11+1+11.0trisquel3
thunderbird=1:102.10.0+build2-0ubuntu0.22.04.1+11.0trisquel18
thunderbird=1:102.4.2+build2-0ubuntu0.22.04.1+11.0trisquel18
tor=0.4.7.13-1~jammy+1+11.0trisquel3
trisquel-app-install=0.6.8
trisquel-base-data=11.5
trisquel-base-data=11.9
trisquel-desktop-common-data=11.0-3
trisquel-gtk-theme=11.1
trisquel-icon-theme=11.0-3
trisquel-icon-theme=11.0-4
trisquel-keyring=2022.10.19
trisquel-keyring=2023.02.07
trisquel-meta=11.0-16
trisquel-meta=11.0-22
trisquel-mini-data=11.2
trisquel-mini-data=11.3
trisquel-screensaver=10.1
trisquel-sounds=9.0
trisquel-wallpapers=11.1
trisquel-wallpapers=11.2
ubiquity-slideshow-trisquel=4.5-16
ubiquity=22.04.18+11.0trisquel31
ubiquity=22.04.19+11.0trisquel33
ubuntu-budgie-meta=0.94+11.0trisquel3
ubuntu-budgie-meta=0.94+11.0trisquel4
ubuntu-gnome-meta=0.92+11.0trisquel1
ubuntu-mate-settings=22.04.14+11.0trisquel6
ubuntu-release-upgrader=1:22.04.15+11.0trisquel13
ubuntu-release-upgrader=1:22.04.16+11.0trisquel14
ubuntukylin-default-settings=21.10+11.0trisquel2
ubuntukylin-meta=0.46+11.0trisquel1
ubuntukylin-meta=0.46+11.0trisquel4
ubuntukylin-meta=0.46+11.0trisquel5
ubuntukylin-theme=3.0.2+11.0trisquel1
ubuntukylin-wallpapers=20.10.1+11.0trisquel3
umbrello=4:22.12.3-0xneon+22.04+jammy+release+build22+11.0trisquel1
unattended-upgrades=2.8ubuntu1+11.0trisquel4
unity-greeter=22.04.1-0ubuntu2+11.0trisquel5
unity-greeter=22.04.1-0ubuntu2+11.0trisquel6
unity=7.5.1+22.04.20211026.2-0ubuntu1+11.0trisquel3
unp=2.0~pre9+11.0trisquel1
unzip=6.0-26ubuntu3.1+11.0trisquel1
update-manager=1:22.04.10+11.0trisquel16
update-manager=1:22.04.10+11.0trisquel17
update-notifier=3.192.54.3+11.0trisquel6
update-notifier=3.192.54.6+11.0trisquel9
usb-creator=0.3.13+11.0trisquel1
user-setup=1.88ubuntu1+11.0trisquel0
util-linux=2.37.2-4ubuntu3+11.0trisquel0
videomass=5.0.0-1+11.0trisquel1
videotrans=1.6.1-8+11.0trisquel1
viewnior=1.6-1build3+11.0trisquel1
vinagre=3.22.0-8ubuntu2+11.0trisquel1
virtnbdbackup=1.9.15-1+11.0trisquel0
vokoscreen-ng=3.1.0-1+11.0trisquel1
wget=1.21.2-2ubuntu1+11.0trisquel0
wide-dhcpv6=20080615-23build1+11.0trisquel0
wireless-regdb=2022.06.06-1+11.0trisquel1
wireless-tools=30~pre9-13.1ubuntu4+11.0trisquel1
wpa=2:2.10-6ubuntu2+11.0trisquel1
xfce4-sensors-plugin=1.4.3-1+11.0trisquel1
xfsprogs=5.13.0-1ubuntu2+11.0trisquel1
xserver-xorg-video-ati=1:19.1.0-2ubuntu1+11.0trisquel1
xterm=372-1ubuntu1+11.0trisquel1
youtube-dl=2021.12.17-2+11.0trisquel3
youtube-dl=2021.12.17-2+11.0trisquel4
zip=3.0-12build2+11.0trisquel1
zlib=1:1.2.11.dfsg-2ubuntu9.2+11.0trisquel0
